…
## $details
## # A tibble: 21,631 × 23
##      num     id primary   description        yearpublished minplayers maxplayers
##    <dbl>  <dbl> <chr>     <chr>                      <dbl>      <dbl>      <dbl>
##  1     0  30549 Pandemic  In Pandemic, seve…          2008          2          4
##  2     1    822 Carcasso… Carcassonne is a …          2000          2          5
##  3     2     13 Catan     In CATAN (formerl…          1995          3          4
##  4     3  68448 7 Wonders You are the leade…          2010          2          7
##  5     4  36218 Dominion  &quot;You are a m…          2008          2          4
##  6     5   9209 Ticket t… With elegantly si…          2004          2          5
##  7     6 178900 Codenames Codenames is an e…          2015          2          8
##  8     7 167791 Terrafor… In the 2400s, man…          2016          1          5
##  9     8 173346 7 Wonder… In many ways 7 Wo…          2015          2          2
## 10     9  31260 Agricola  Description from …          2007          1          5
## # … with 21,621 more rows, and 16 more variables: playingtime <dbl>,
## #   minplaytime <dbl>, maxplaytime <dbl>, minage <dbl>,
## #   boardgamecategory <chr>, boardgamemechanic <chr>, boardgamefamily <chr>,
## #   boardgameexpansion <chr>, boardgameimplementation <chr>,
## #   boardgamedesigner <chr>, boardgameartist <chr>, boardgamepublisher <chr>,
## #   owned <dbl>, trading <dbl>, wanting <dbl>, wishing <dbl>
## 
## $ratings
## # A tibble: 21,831 × 10
##      num     id name     year  rank average bayes_average users_rated url       
##    <dbl>  <dbl> <chr>   <dbl> <dbl>   <dbl>         <dbl>       <dbl> <chr>     
##  1   105  30549 Pandem…  2008   106    7.59          7.49      108975 /boardgam…
##  2   189    822 Carcas…  2000   190    7.42          7.31      108738 /boardgam…
##  3   428     13 Catan    1995   429    7.14          6.97      108024 /boardgam…
##  4    72  68448 7 Wond…  2010    73    7.74          7.63       89982 /boardgam…
##  5   103  36218 Domini…  2008   104    7.61          7.50       81561 /boardgam…
##  6   191   9209 Ticket…  2004   192    7.41          7.30       76171 /boardgam…
##  7   100 178900 Codena…  2015   101    7.6           7.51       74419 /boardgam…
##  8     3 167791 Terraf…  2016     4    8.42          8.27       74216 /boardgam…
##  9    15 173346 7 Wond…  2015    16    8.11          7.98       69472 /boardgam…
## 10    35  31260 Agrico…  2007    36    7.93          7.81       66093 /boardgam…
## # … with 21,821 more rows, and 1 more variable: thumbnail <chr>
…
